CONTAINER vonc_svg_import
{
	NAME vonc_svg_import;
	INCLUDE Fbase;

	GROUP VONC_SVG_IMPORT_GROUPE
	{
		SEPARATOR VONC_SVG_IMPORT_GROUPE_GENERAL {}
			
			REAL VONC_SVG_IMPORT_DECZ	{ UNIT METER; STEP 0.1; }
		
		SEPARATOR VONC_SVG_IMPORT_GROUPE_COURBE {}
			
			BOOL VONC_SVG_IMPORT_COUPECONST	{ }
		
		SEPARATOR VONC_SVG_IMPORT_GROUPE_FORMES {}
			
			BOOL VONC_SVG_IMPORT_FORMES	{ }
		
		SEPARATOR VONC_SVG_IMPORT_GROUPE_MATS {}
			
			BOOL VONC_SVG_IMPORT_MATS	{ }
		
		SEPARATOR { LINE; }
		
		GROUP {
			STATICTEXT VONC_SVG_IMPORT_INFO { }
		}
	}
}
